<?xml version="1.0" encoding="UTF-8"?>
<svg id="Layer_2" data-name="Layer 2" xmlns="http://www.w3.org/2000/svg" viewBox="0 0 159.07 159.07">
  <defs>
    <style>
      .cls-1 {
        fill: #dedfe0;
      }

      .cls-1, .cls-2, .cls-3, .cls-4, .cls-5 {
        stroke-width: 0px;
      }

      .cls-2 {
        fill: #f4f4f4;
      }

      .cls-3 {
        fill: #555a5e;
      }

      .cls-4 {
        fill: #d2d4da;
      }

      .cls-5 {
        fill: #6e7174;
      }
    </style>
  </defs>
  <g id="OBJECTS">
    <g>
      <path class="cls-1" d="m159.07,79.53c0,21.44-8.49,40.91-22.28,55.21-14.47,15-34.77,24.32-57.25,24.32s-42.79-9.33-57.25-24.33C8.48,120.44,0,100.97,0,79.53,0,35.61,35.61,0,79.54,0s79.53,35.61,79.53,79.53Z"/>
      <g>
        <path class="cls-3" d="m107.37,56.96h-.01c-1.52,1.55-2.12,3.78-1.57,5.87h0c.85,3.26-1.07,6.59-4.31,7.47h0c-2.09.57-3.73,2.21-4.3,4.3h0c-.88,3.24-4.21,5.17-7.46,4.31h0c-2.09-.55-4.32.05-5.86,1.57h-.01c-2.39,2.37-6.23,2.37-8.61.01h-.01c-1.54-1.53-3.77-2.13-5.86-1.58h0c-3.25.85-6.58-1.07-7.46-4.31h0c-.57-2.09-2.21-3.73-4.3-4.3h0c-3.24-.88-5.17-4.21-4.31-7.46h0c.55-2.1-.05-4.33-1.57-5.87h-.01c-2.36-2.4-2.36-6.24,0-8.62h.01c1.52-1.55,2.12-3.78,1.57-5.87h0c-.85-3.26,1.07-6.59,4.31-7.47h0c2.09-.57,3.73-2.21,4.3-4.3h0c.88-3.24,4.21-5.17,7.46-4.31h0c2.09.55,4.32-.05,5.86-1.57h.01c2.39-2.37,6.23-2.37,8.61-.01h.01c1.54,1.53,3.77,2.13,5.86,1.58h0c3.25-.85,6.58,1.07,7.46,4.31h0c.57,2.09,2.21,3.73,4.3,4.3h0c3.24.88,5.17,4.21,4.31,7.46h0c-.55,2.1.05,4.33,1.57,5.87h.01c2.36,2.4,2.36,6.24,0,8.62Z"/>
        <path class="cls-4" d="m91.67,92.48c-1.76,7.73-6.53,13.27-12.13,13.27s-10.38-5.56-12.14-13.29l1.35-5.25.41-1.57h20.75l1.54,6,.14.54.08.3Z"/>
        <path class="cls-2" d="m105.64,63.06c10.33-11.59,3.44,16.75-2.28,13.43-10.05-5.82,2.28-13.43,2.28-13.43Z"/>
        <path class="cls-2" d="m136.78,134.74c-5.37,5.56-11.54,10.34-18.32,14.16-5.22,2.94-10.81,5.3-16.67,7.01-5.89,1.71-12.05,2.76-18.42,3.06-1.27.07-2.55.1-3.84.1-6.41,0-12.64-.76-18.61-2.19-.86-.21-1.72-.42-2.57-.67-7.36-2.02-14.28-5.07-20.62-9-5.67-3.51-10.85-7.7-15.45-12.47l1.37-5.4c2.07-8.11,8.46-14.41,16.61-16.36l.9-.21,9.99-2.39,2.73-.65c1.15-.28,2.25-.67,3.29-1.17.4-.19.8-.41,1.18-.63.45-.26.88-.54,1.3-.84.84-.6,1.63-1.28,2.34-2.03,1.91-2.01,3.32-4.49,4.04-7.28l1.06-4.12.28-1.11.02-.09,1.36-5.25.4-1.57h20.75l1.55,6,.14.54.08.3v.07s.3,1.12.3,1.12l1.06,4.11c.99,3.82,3.28,7.09,6.39,9.31.74.54,1.54,1.02,2.37,1.42,1.07.53,2.2.94,3.39,1.22l2.52.6,11.1,2.65c8.15,1.95,14.54,8.25,16.61,16.36l1.37,5.4Z"/>
        <path class="cls-4" d="m91.67,92.48c-1.76,7.73-6.53,13.27-12.13,13.27s-10.38-5.56-12.14-13.29l1.35-5.25.41-1.57h20.75l1.54,6,.14.54.08.3Z"/>
        <path class="cls-2" d="m53.44,63.06c-10.33-11.59-3.44,16.75,2.28,13.43,10.05-5.82-2.28-13.43-2.28-13.43Z"/>
        <path class="cls-2" d="m103.57,54.71c0,.88-.05,1.74-.15,2.6-.04.43-.17,1.66-.38,3.39-.17,1.38-.39,3.08-.67,4.96h0c-.34,2.36-.78,4.99-1.3,7.63,0,.03,0,.07-.02.1-1.27,6.43-3.06,12.83-5.4,15.16-2.64,2.64-4.76,5.04-7.18,6.77-2.42,1.74-5.13,2.82-8.93,2.82s-6.51-1.08-8.93-2.82c-2.41-1.73-4.54-4.13-7.18-6.77-2.34-2.34-4.13-8.75-5.41-15.17h0s-.01-.03-.01-.04c-.16-.83-.31-1.66-.46-2.48-.06-.34-.12-.68-.18-1.02-.25-1.44-.47-2.85-.67-4.17-.72-4.87-1.07-8.54-1.07-8.54-.08-.79-.12-1.6-.12-2.42,0-.21,0-.42.01-.63.05-1.89.31-3.73.78-5.49.02-.08.04-.16.06-.24,2.67-9.76,11.34-17.05,21.8-17.63.46-.03.91-.04,1.38-.04,6.64,0,12.65,2.69,17,7.04,3.76,3.75,6.28,8.75,6.89,14.32.1.88.15,1.77.15,2.67Z"/>
        <path class="cls-3" d="m104.27,54.9c0,.91-.05,1.79-.15,2.68-.04.44-.17,1.71-.39,3.49-.17,1.42-1.35,4.6-1.35,4.6-3.19,0-4.68-2.07-4.68-5.26v-5.91c0-3.23-2.62-5.84-5.84-5.84h-24.62c-3.23,0-5.84,2.62-5.84,5.84v6.36c0,2.94-1.74,4.82-4.69,4.82l-1.76-8.28c-.08-.81-.12-1.65-.12-2.49,0-.22,0-.43.01-.65.05-1.94.32-3.84.8-5.65.02-.08.04-.16.06-.25,2.75-10.04,11.67-17.54,22.43-18.14.47-.03.94-.04,1.42-.04,6.83,0,13.02,2.77,17.49,7.24,3.87,3.86,6.46,9,7.09,14.73.1.91.15,1.82.15,2.75Z"/>
        <path class="cls-1" d="m83.31,76.32c0,1.66-1.69,3-3.78,3s-3.77-1.34-3.77-3c0-.2.02-.4.08-.58.33,1.38,1.86,2.42,3.69,2.42s3.37-1.04,3.7-2.42c.06.19.08.38.08.58Z"/>
        <path class="cls-4" d="m136.78,134.75c-5.07,5.25-10.85,9.81-17.19,13.51-11.76,6.87-25.45,10.81-40.06,10.81s-28.4-3.97-40.19-10.89c-6.3-3.69-12.03-8.22-17.06-13.44l1.37-5.39c2.07-8.12,8.46-14.42,16.61-16.37l2.09-.5,8.82-2.1,2.16-.52.55-.13c1.22-.29,2.4-.72,3.5-1.27,5.54,5.9,13.41,9.59,22.15,9.59s16.61-3.69,22.15-9.59c1.1.54,2.27.98,3.5,1.27l.44.11,1.93.46,9.05,2.16,2.2.52c8.15,1.95,14.54,8.25,16.6,16.37l1.38,5.4Z"/>
        <g>
          <path class="cls-4" d="m68.1,79.46c-4.82,0-8.74-3.92-8.74-8.74s3.92-8.74,8.74-8.74,8.74,3.92,8.74,8.74-3.92,8.74-8.74,8.74Zm0-16.49c-4.27,0-7.74,3.47-7.74,7.74s3.47,7.74,7.74,7.74,7.74-3.47,7.74-7.74-3.47-7.74-7.74-7.74Z"/>
          <path class="cls-4" d="m90.98,79.46c-4.82,0-8.74-3.92-8.74-8.74s3.92-8.74,8.74-8.74,8.74,3.92,8.74,8.74-3.92,8.74-8.74,8.74Zm0-16.49c-4.27,0-7.74,3.47-7.74,7.74s3.47,7.74,7.74,7.74,7.74-3.47,7.74-7.74-3.47-7.74-7.74-7.74Z"/>
          <path class="cls-4" d="m83.24,70.71h-1c0-1.49-1.21-2.7-2.7-2.7s-2.7,1.21-2.7,2.7h-1c0-2.04,1.66-3.7,3.7-3.7s3.7,1.66,3.7,3.7Z"/>
        </g>
        <g>
          <path class="cls-5" d="m58.35,107.93v48.28c-7.36-2.02-14.28-5.07-20.62-9-5.67-3.51-10.85-7.7-15.45-12.47l1.37-5.4c2.07-8.11,8.46-14.41,16.61-16.36l.9-.21,9.99-2.39,2.73-.65c1.15-.28,2.25-.67,3.29-1.17.4-.19.8-.41,1.18-.63Z"/>
          <path class="cls-5" d="m136.78,134.74c-5.37,5.56-11.54,10.34-18.32,14.16-5.22,2.94-10.81,5.3-16.67,7.01v-47.4c1.07.53,2.2.94,3.39,1.22l2.52.6,11.1,2.65c8.15,1.95,14.54,8.25,16.61,16.36l1.37,5.4Z"/>
        </g>
      </g>
    </g>
  </g>
</svg>